{
  "Comment": "A Hello World example of the Amazon States Language using an AWS Lambda Function",
  "StartAt": "HelloWorld",
  "States": {
    "HelloWorld": {
      "Type": "Task",
      "Resource": "arn:aws:lambda:us-east-1:398385920689:function:testlambda",
      "End": true
    }
  }
}